{"count": 32, "description": "Documents matching '\"Gifts to Federal Employees from Foreign Government Sources\"' and from State Department", "total_pages": 2, "next_page_url": "https://www.federalregister.gov/api/v1/documents?conditions%5Bagencies%5D%5B%5D=state-department&conditions%5Bterm%5D=%22Gifts+to+Federal+Employees+from+Foreign+Government+Sources%22&format=json&page=2", "results": [{"title": "Office of the Chief of Protocol; Gifts to Federal Employees From Foreign Government Sources Reported To Employing Agencies in Calendar Year 2022; Correction", "type": "Notice", "abstract": "The Department of State published a document of overvalue gifts reported to employing agencies in calendar year 2022 in the Federal Register of February 15, 2024. The document contained incorrect values and disposition of respective gifts for 50 previously reported items. This notice corrects the previously reported information for those items.", "document_number": "2024-09344", "html_url": "https://www.federalregister.gov/documents/2024/05/01/2024-09344/office-of-the-chief-of-protocol-gifts-to-federal-employees-from-foreign-government-sources-reported", "pdf_url": "https://www.govinfo.gov/content/pkg/FR-2024-05-01/pdf/2024-09344.pdf", "public_inspection_pdf_url": "https://public-inspection.federalregister.gov/2024-09344.pdf?1714481128", "publication_date": "2024-05-01", "agencies": [{"raw_name": "DEPARTMENT OF STATE", "name": "State Department", "id": 476, "url": "https://www.federalregister.gov/agencies/state-department", "json_url": "https://www.federalregister.gov/api/v1/agencies/476", "parent_id": null, "slug": "state-department"}], "excerpts": "Office of the Chief of Protocol; <span class=\"match\">Gifts to Federal Employees From Foreign Government Sources</span> Reported To Employing Agencies in Calendar Year 2022; Correction"}, {"title": "Office of the Chief of Protocol; Gifts to Federal Employees From Foreign Government Sources Reported to Employing Agencies in Calendar Year 2022", "type": "Notice", "abstract": null, "document_number": "2024-03129", "html_url": "https://www.federalregister.gov/documents/2024/02/15/2024-03129/office-of-the-chief-of-protocol-gifts-to-federal-employees-from-foreign-government-sources-reported", "pdf_url": "https://www.govinfo.gov/content/pkg/FR-2024-02-15/pdf/2024-03129.pdf", "public_inspection_pdf_url": "https://public-inspection.federalregister.gov/2024-03129.pdf?1707918328", "publication_date": "2024-02-15", "agencies": [{"raw_name": "DEPARTMENT OF STATE", "name": "State Department", "id": 476, "url": "https://www.federalregister.gov/agencies/state-department", "json_url": "https://www.federalregister.gov/api/v1/agencies/476", "parent_id": null, "slug": "state-department"}], "excerpts": "Office of the Chief of Protocol; <span class=\"match\">Gifts to Federal Employees From Foreign Government Sources</span> Reported to Employing Agencies in Calendar Year 2022"}, {"title": "Office of the Chief of Protocol; Gifts to Federal Employees From Foreign Government Sources Reported to Employing Agencies in Calendar Year 2021", "type": "Notice", "abstract": null, "document_number": "2023-03806", "html_url": "https://www.federalregister.gov/documents/2023/02/24/2023-03806/office-of-the-chief-of-protocol-gifts-to-federal-employees-from-foreign-government-sources-reported", "pdf_url": "https://www.govinfo.gov/content/pkg/FR-2023-02-24/pdf/2023-03806.pdf", "public_inspection_pdf_url": "https://public-inspection.federalregister.gov/2023-03806.pdf?1677159930", "publication_date": "2023-02-24", "agencies": [{"raw_name": "DEPARTMENT OF STATE", "name": "State Department", "id": 476, "url": "https://www.federalregister.gov/agencies/state-department", "json_url": "https://www.federalregister.gov/api/v1/agencies/476", "parent_id": null, "slug": "state-department"}], "excerpts": "Office of the Chief of Protocol; <span class=\"match\">Gifts to Federal Employees From Foreign Government Sources</span> Reported to Employing Agencies in Calendar Year 2021"}, {"title": "Office of the Chief of Protocol; Gifts to Federal Employees From Foreign Government Sources Reported to Employing Agencies in Calendar Year 2020", "type": "Notice", "abstract": null, "document_number": "2022-07641", "html_url": "https://www.federalregister.gov/documents/2022/04/11/2022-07641/office-of-the-chief-of-protocol-gifts-to-federal-employees-from-foreign-government-sources-reported", "pdf_url": "https://www.govinfo.gov/content/pkg/FR-2022-04-11/pdf/2022-07641.pdf", "public_inspection_pdf_url": "https://public-inspection.federalregister.gov/2022-07641.pdf?1649421925", "publication_date": "2022-04-11", "agencies": [{"raw_name": "DEPARTMENT OF STATE", "name": "State Department", "id": 476, "url": "https://www.federalregister.gov/agencies/state-department", "json_url": "https://www.federalregister.gov/api/v1/agencies/476", "parent_id": null, "slug": "state-department"}], "excerpts": "Office of the Chief of Protocol; <span class=\"match\">Gifts to Federal Employees From Foreign Government Sources</span> Reported to Employing Agencies in Calendar Year 2020"}, {"title": "Office of the Chief of Protocol; Gifts to Federal Employees From Foreign Government Sources Reported to Employing Agencies in Calendar Year 2019", "type": "Notice", "abstract": null, "document_number": "2021-16751", "html_url": "https://www.federalregister.gov/documents/2021/08/05/2021-16751/office-of-the-chief-of-protocol-gifts-to-federal-employees-from-foreign-government-sources-reported", "pdf_url": "https://www.govinfo.gov/content/pkg/FR-2021-08-05/pdf/2021-16751.pdf", "public_inspection_pdf_url": "https://public-inspection.federalregister.gov/2021-16751.pdf?1628081140", "publication_date": "2021-08-05", "agencies": [{"raw_name": "DEPARTMENT OF STATE", "name": "State Department", "id": 476, "url": "https://www.federalregister.gov/agencies/state-department", "json_url": "https://www.federalregister.gov/api/v1/agencies/476", "parent_id": null, "slug": "state-department"}], "excerpts": "Office of the Chief of Protocol; <span class=\"match\">Gifts to Federal Employees From Foreign Government Sources</span> Reported to Employing Agencies in Calendar Year 2019"}, {"title": "Office of the Chief of Protocol; Gifts to Federal Employees From Foreign Government Sources Reported to Employing Agencies in Calendar Year 2018", "type": "Notice", "abstract": null, "document_number": "2020-03722", "html_url": "https://www.federalregister.gov/documents/2020/02/25/2020-03722/office-of-the-chief-of-protocol-gifts-to-federal-employees-from-foreign-government-sources-reported", "pdf_url": "https://www.govinfo.gov/content/pkg/FR-2020-02-25/pdf/2020-03722.pdf", "public_inspection_pdf_url": "https://public-inspection.federalregister.gov/2020-03722.pdf?1582551930", "publication_date": "2020-02-25", "agencies": [{"raw_name": "DEPARTMENT OF STATE", "name": "State Department", "id": 476, "url": "https://www.federalregister.gov/agencies/state-department", "json_url": "https://www.federalregister.gov/api/v1/agencies/476", "parent_id": null, "slug": "state-department"}], "excerpts": "Office of the Chief of Protocol; <span class=\"match\">Gifts to Federal Employees From Foreign Government Sources</span> Reported to Employing Agencies in Calendar Year 2018"}, {"title": "Office of the Chief of Protocol; Gifts to Federal Employees From Foreign Government Sources Reported To Employing Agencies in Calendar Year 2017", "type": "Notice", "abstract": null, "document_number": "2019-04063", "html_url": "https://www.federalregister.gov/documents/2019/03/07/2019-04063/office-of-the-chief-of-protocol-gifts-to-federal-employees-from-foreign-government-sources-reported", "pdf_url": "https://www.govinfo.gov/content/pkg/FR-2019-03-07/pdf/2019-04063.pdf", "public_inspection_pdf_url": "https://public-inspection.federalregister.gov/2019-04063.pdf?1551879915", "publication_date": "2019-03-07", "agencies": [{"raw_name": "DEPARTMENT OF STATE", "name": "State Department", "id": 476, "url": "https://www.federalregister.gov/agencies/state-department", "json_url": "https://www.federalregister.gov/api/v1/agencies/476", "parent_id": null, "slug": "state-department"}], "excerpts": "Office of the Chief of Protocol; <span class=\"match\">Gifts to Federal Employees From Foreign Government Sources</span> Reported To Employing Agencies in Calendar Year 2017"}, {"title": "Office of the Chief of Protocol; Gifts to Federal Employees From Foreign Government Sources Reported to Employing Agencies in Calendar Year 2016", "type": "Notice", "abstract": null, "document_number": "2018-00365", "html_url": "https://www.federalregister.gov/documents/2018/01/11/2018-00365/office-of-the-chief-of-protocol-gifts-to-federal-employees-from-foreign-government-sources-reported", "pdf_url": "https://www.govinfo.gov/content/pkg/FR-2018-01-11/pdf/2018-00365.pdf", "public_inspection_pdf_url": "https://public-inspection.federalregister.gov/2018-00365.pdf?1515591977", "publication_date": "2018-01-11", "agencies": [{"raw_name": "DEPARTMENT OF STATE", "name": "State Department", "id": 476, "url": "https://www.federalregister.gov/agencies/state-department", "json_url": "https://www.federalregister.gov/api/v1/agencies/476", "parent_id": null, "slug": "state-department"}], "excerpts": "Office of the Chief of Protocol; <span class=\"match\">Gifts to Federal Employees From Foreign Government Sources</span> Reported to Employing Agencies in Calendar Year 2016"}, {"title": "Office of the Chief of Protocol; Gifts to Federal Employees From Foreign Government Sources Reported to Employing Agencies in Calendar Year 2015", "type": "Notice", "abstract": null, "document_number": "2016-24481", "html_url": "https://www.federalregister.gov/documents/2016/10/12/2016-24481/office-of-the-chief-of-protocol-gifts-to-federal-employees-from-foreign-government-sources-reported", "pdf_url": "https://www.govinfo.gov/content/pkg/FR-2016-10-12/pdf/2016-24481.pdf", "public_inspection_pdf_url": "https://public-inspection.federalregister.gov/2016-24481.pdf?1476189925", "publication_date": "2016-10-12", "agencies": [{"raw_name": "DEPARTMENT OF STATE", "name": "State Department", "id": 476, "url": "https://www.federalregister.gov/agencies/state-department", "json_url": "https://www.federalregister.gov/api/v1/agencies/476", "parent_id": null, "slug": "state-department"}], "excerpts": "Office of the Chief of Protocol; <span class=\"match\">Gifts to Federal Employees From Foreign Government Sources</span> Reported to Employing Agencies in Calendar Year 2015"}, {"title": "Office of the Chief of Protocol; Gifts to Federal Employees From Foreign Government Sources Reported to Employing Agencies in Calendar Year 2014", "type": "Notice", "abstract": null, "document_number": "2015-29897", "html_url": "https://www.federalregister.gov/documents/2015/11/25/2015-29897/office-of-the-chief-of-protocol-gifts-to-federal-employees-from-foreign-government-sources-reported", "pdf_url": "https://www.govinfo.gov/content/pkg/FR-2015-11-25/pdf/2015-29897.pdf", "public_inspection_pdf_url": "https://public-inspection.federalregister.gov/2015-29897.pdf?1448372731", "publication_date": "2015-11-25", "agencies": [{"raw_name": "DEPARTMENT OF STATE", "name": "State Department", "id": 476, "url": "https://www.federalregister.gov/agencies/state-department", "json_url": "https://www.federalregister.gov/api/v1/agencies/476", "parent_id": null, "slug": "state-department"}], "excerpts": "Office of the Chief of Protocol; <span class=\"match\">Gifts to Federal Employees From Foreign Government Sources</span> Reported to Employing Agencies in Calendar Year 2014"}, {"title": "Office of the Chief of Protocol; Gifts to Federal Employees From Foreign Government Sources Reported to Employing Agencies in Calendar Year 2013", "type": "Notice", "abstract": null, "document_number": "2014-26782", "html_url": "https://www.federalregister.gov/documents/2014/11/12/2014-26782/office-of-the-chief-of-protocol-gifts-to-federal-employees-from-foreign-government-sources-reported", "pdf_url": "https://www.govinfo.gov/content/pkg/FR-2014-11-12/pdf/2014-26782.pdf", "public_inspection_pdf_url": "https://public-inspection.federalregister.gov/2014-26782.pdf?1415628084", "publication_date": "2014-11-12", "agencies": [{"raw_name": "DEPARTMENT OF STATE", "name": "State Department", "id": 476, "url": "https://www.federalregister.gov/agencies/state-department", "json_url": "https://www.federalregister.gov/api/v1/agencies/476", "parent_id": null, "slug": "state-department"}], "excerpts": "Office of the Chief of Protocol; <span class=\"match\">Gifts to Federal Employees From Foreign Government Sources</span> Reported to Employing Agencies in Calendar Year 2013"}, {"title": "Office of the Chief of Protocol; Gifts to Federal Employees from Foreign Government Sources Reported to Employing Agencies in Calendar Year 2012", "type": "Notice", "abstract": null, "document_number": "2013-21264", "html_url": "https://www.federalregister.gov/documents/2013/08/30/2013-21264/office-of-the-chief-of-protocol-gifts-to-federal-employees-from-foreign-government-sources-reported", "pdf_url": "https://www.govinfo.gov/content/pkg/FR-2013-08-30/pdf/2013-21264.pdf", "public_inspection_pdf_url": "https://public-inspection.federalregister.gov/2013-21264.pdf?1377780640", "publication_date": "2013-08-30", "agencies": [{"raw_name": "DEPARTMENT OF STATE", "name": "State Department", "id": 476, "url": "https://www.federalregister.gov/agencies/state-department", "json_url": "https://www.federalregister.gov/api/v1/agencies/476", "parent_id": null, "slug": "state-department"}], "excerpts": "Office of the Chief of Protocol; <span class=\"match\">Gifts to Federal Employees from Foreign Government Sources</span> Reported to Employing Agencies in Calendar Year 2012"}, {"title": "Office of the Chief of Protocol; Gifts to Federal Employees from Foreign Government Sources Reported to Employing Agencies in Calendar Year 2010", "type": "Notice", "abstract": null, "document_number": "2013-12468", "html_url": "https://www.federalregister.gov/documents/2013/05/24/2013-12468/office-of-the-chief-of-protocol-gifts-to-federal-employees-from-foreign-government-sources-reported", "pdf_url": "https://www.govinfo.gov/content/pkg/FR-2013-05-24/pdf/2013-12468.pdf", "public_inspection_pdf_url": "https://public-inspection.federalregister.gov/2013-12468.pdf?1369313550", "publication_date": "2013-05-24", "agencies": [{"raw_name": "DEPARTMENT OF STATE", "name": "State Department", "id": 476, "url": "https://www.federalregister.gov/agencies/state-department", "json_url": "https://www.federalregister.gov/api/v1/agencies/476", "parent_id": null, "slug": "state-department"}], "excerpts": "Office of the Chief of Protocol; <span class=\"match\">Gifts to Federal Employees from Foreign Government Sources</span> Reported to Employing Agencies in Calendar Year 2010"}, {"title": "Office of the Chief of Protocol; Gifts to Federal Employees From Foreign Government Sources Reported to Employing Agencies in Calendar Year 2011", "type": "Notice", "abstract": null, "document_number": "2013-09945", "html_url": "https://www.federalregister.gov/documents/2013/04/26/2013-09945/office-of-the-chief-of-protocol-gifts-to-federal-employees-from-foreign-government-sources-reported", "pdf_url": "https://www.govinfo.gov/content/pkg/FR-2013-04-26/pdf/2013-09945.pdf", "public_inspection_pdf_url": "https://public-inspection.federalregister.gov/2013-09945.pdf?1366894601", "publication_date": "2013-04-26", "agencies": [{"raw_name": "DEPARTMENT OF STATE", "name": "State Department", "id": 476, "url": "https://www.federalregister.gov/agencies/state-department", "json_url": "https://www.federalregister.gov/api/v1/agencies/476", "parent_id": null, "slug": "state-department"}], "excerpts": "Office of the Chief of Protocol; <span class=\"match\">Gifts to Federal Employees From Foreign Government Sources</span> Reported to Employing Agencies in Calendar Year 2011"}, {"title": "Office of the Chief of Protocol; Gifts to Federal Employees From Foreign Government Sources Reported by Employing Agencies in Calendar Year 2009; Correction", "type": "Notice", "abstract": "The Department of State published a document in the Federal Register of January 18, 2011 concerning Gifts to Federal Employees from Foreign Government Sources Reported to Employing Agencies in Calendar Year 2009. The document contained the incorrect title of a foreign dignitary.", "document_number": "2011-6457", "html_url": "https://www.federalregister.gov/documents/2011/03/18/2011-6457/office-of-the-chief-of-protocol-gifts-to-federal-employees-from-foreign-government-sources-reported", "pdf_url": "https://www.govinfo.gov/content/pkg/FR-2011-03-18/pdf/2011-6457.pdf", "public_inspection_pdf_url": null, "publication_date": "2011-03-18", "agencies": [{"raw_name": "DEPARTMENT OF STATE", "name": "State Department", "id": 476, "url": "https://www.federalregister.gov/agencies/state-department", "json_url": "https://www.federalregister.gov/api/v1/agencies/476", "parent_id": null, "slug": "state-department"}], "excerpts": "Federal Register \n of January 18, 2011 concerning <span class=\"match\">Gifts to Federal Employees from Foreign Government Sources</span> Reported to Employing Agencies in Calendar Year \u2026 Federal Register of January 18, 2011 concerning <span class=\"match\">Gifts to Federal Employees from Foreign Government Sources</span> Reported to Employing Agencies in Calendar Year \u2026 Office of the Chief of Protocol; <span class=\"match\">Gifts to Federal Employees From Foreign Government Sources</span> Reported by Employing Agencies in Calendar Year 2009; Correction"}, {"title": "Office of the Chief of Protocol; Gifts to Federal Employees from Foreign Government Sources Reported to Employing Agencies in Calendar Year 2009", "type": "Notice", "abstract": null, "document_number": "2011-794", "html_url": "https://www.federalregister.gov/documents/2011/01/18/2011-794/office-of-the-chief-of-protocol-gifts-to-federal-employees-from-foreign-government-sources-reported", "pdf_url": "https://www.govinfo.gov/content/pkg/FR-2011-01-18/pdf/2011-794.pdf", "public_inspection_pdf_url": null, "publication_date": "2011-01-18", "agencies": [{"raw_name": "DEPARTMENT OF STATE", "name": "State Department", "id": 476, "url": "https://www.federalregister.gov/agencies/state-department", "json_url": "https://www.federalregister.gov/api/v1/agencies/476", "parent_id": null, "slug": "state-department"}], "excerpts": "Office of the Chief of Protocol; <span class=\"match\">Gifts to Federal Employees from Foreign Government Sources</span> Reported to Employing Agencies in Calendar Year 2009"}, {"title": "Office of Protocol; Gifts to Federal Employees From Foreign Government Sources Reported to Employing Agencies in Calendar Year 2008", "type": "Notice", "abstract": null, "document_number": "E9-15022", "html_url": "https://www.federalregister.gov/documents/2009/06/25/E9-15022/office-of-protocol-gifts-to-federal-employees-from-foreign-government-sources-reported-to-employing", "pdf_url": "https://www.govinfo.gov/content/pkg/FR-2009-06-25/pdf/E9-15022.pdf", "public_inspection_pdf_url": null, "publication_date": "2009-06-25", "agencies": [{"raw_name": "DEPARTMENT OF STATE", "name": "State Department", "id": 476, "url": "https://www.federalregister.gov/agencies/state-department", "json_url": "https://www.federalregister.gov/api/v1/agencies/476", "parent_id": null, "slug": "state-department"}], "excerpts": "Office of Protocol; <span class=\"match\">Gifts to Federal Employees From Foreign Government Sources</span> Reported to Employing Agencies in Calendar Year 2008"}, {"title": "Office of the Chief of Protocol; Gifts to Federal Employees From Foreign Government Sources Reported to Employing Agencies in Calendar Year 2007; Correction", "type": "Notice", "abstract": "This document contains a correction to the Notice ``Gifts to Federal Employees From Foreign Government Sources Reported to Employing Agencies in Calendar Year 2007'' published in the Federal Register on December 2, 2008, in FR Volume 73, Number 246. This notice is a request to change the identity of the foreign donor and government of a gift given to the Honorable Condoleezza Rice, Secretary of State of the United States, on January 5, 2007.", "document_number": "E9-969", "html_url": "https://www.federalregister.gov/documents/2009/01/21/E9-969/office-of-the-chief-of-protocol-gifts-to-federal-employees-from-foreign-government-sources-reported", "pdf_url": "https://www.govinfo.gov/content/pkg/FR-2009-01-21/pdf/E9-969.pdf", "public_inspection_pdf_url": null, "publication_date": "2009-01-21", "agencies": [{"raw_name": "DEPARTMENT OF STATE", "name": "State Department", "id": 476, "url": "https://www.federalregister.gov/agencies/state-department", "json_url": "https://www.federalregister.gov/api/v1/agencies/476", "parent_id": null, "slug": "state-department"}], "excerpts": "document contains a correction to the Notice \u201c<span class=\"match\">Gifts to Federal Employees From Foreign Government Sources</span> Reported to Employing Agencies in Calendar Year \u2026 document contains a correction to the Notice ``<span class=\"match\">Gifts to Federal Employees From Foreign Government Sources</span> Reported to Employing Agencies in Calendar Year \u2026 Office of the Chief of Protocol; <span class=\"match\">Gifts to Federal Employees From Foreign Government Sources</span> Reported to Employing Agencies in Calendar Year 2007; Correction"}, {"title": "Office of the Chief of Protocol; Gifts to Federal Employees From Foreign Government Sources Reported to Employing Agencies in Calendar Year 2007", "type": "Notice", "abstract": "The Department of State submits the following comprehensive listing of the statements which, as required by law, Federal employees filed with their employing agencies during calendar year 2007 concerning gifts received from foreign government sources. The compilation includes reports of both tangible gifts and gifts of travel or travel expenses of more than minimal value, as defined by statute. Also included are gifts received in previous years including 2 gifts in 2002, 5 gifts in 2005 and 17 gifts in 2006. These latter gifts and expenses are being reported in 2007 as the Office of the Chief of Protocol, Department of State, did not receive the relevant information to include them in earlier reports. Publication of this listing in the Federal Register is required by Section 7342(f) of Title 5, United States Code, as added by Section 515(a)(1) of the Foreign Relations Authorization Act, Fiscal Year 1978 (Pub. L. 95-105, August 17, 1977, 91 Stat. 865).", "document_number": "E8-29759", "html_url": "https://www.federalregister.gov/documents/2008/12/22/E8-29759/office-of-the-chief-of-protocol-gifts-to-federal-employees-from-foreign-government-sources-reported", "pdf_url": "https://www.govinfo.gov/content/pkg/FR-2008-12-22/pdf/E8-29759.pdf", "public_inspection_pdf_url": null, "publication_date": "2008-12-22", "agencies": [{"raw_name": "DEPARTMENT OF STATE", "name": "State Department", "id": 476, "url": "https://www.federalregister.gov/agencies/state-department", "json_url": "https://www.federalregister.gov/api/v1/agencies/476", "parent_id": null, "slug": "state-department"}], "excerpts": "Office of the Chief of Protocol; <span class=\"match\">Gifts to Federal Employees From Foreign Government Sources</span> Reported to Employing Agencies in Calendar Year 2007"}, {"title": "Office of Protocol; Gifts to Federal Employees From Foreign Government Sources Reported to Employing Agencies in Calendar Year 2006", "type": "Notice", "abstract": null, "document_number": "E7-23674", "html_url": "https://www.federalregister.gov/documents/2007/12/07/E7-23674/office-of-protocol-gifts-to-federal-employees-from-foreign-government-sources-reported-to-employing", "pdf_url": "https://www.govinfo.gov/content/pkg/FR-2007-12-07/pdf/E7-23674.pdf", "public_inspection_pdf_url": null, "publication_date": "2007-12-07", "agencies": [{"raw_name": "DEPARTMENT OF STATE", "name": "State Department", "id": 476, "url": "https://www.federalregister.gov/agencies/state-department", "json_url": "https://www.federalregister.gov/api/v1/agencies/476", "parent_id": null, "slug": "state-department"}], "excerpts": "Office of Protocol; <span class=\"match\">Gifts to Federal Employees From Foreign Government Sources</span> Reported to Employing Agencies in Calendar Year 2006"}]}